3758119    2330    17362720	1009863	807767
5885881    3185    22321851	1553541	803631
3936088    2564    17803727	1080507	2921855
5358116    3043    32652154	1680927	1160742
4472230    3476    19782543	1462716	1146454
5834616    3287    22372171	1508838	2596798
4682715    2420    22987213	1560169	859714
3751547    2970    24302271	1186412	1564672
3947935    3109    29909031	1515591	2837453
5045204    3276    25747081	1549414	1293709
6672803    3066    27083696	1584301	728301
5421232    3290    30630976	1483391	1625447
4830373    3447    21161520	1522026	2304258
3079558    3250    23511461	945277	614431
6176950    2927    16330521	1398297	1339270
3907783    2616    28612166	1193208	728073
5521657    2370    28701956	2193056	835086
3329302    3427    44681687	1363145	2907159
4677511    2869    18108356	1513282	728668
7561904    3139    20572126	882513	964991
4878204    3159    38083033	1426314	1079662
7381560    2206    20604306	1529820	824034
3143725    2780    15376915	924685	1123442
4839707    4598    16523191	1454778	841514
3444447    2636    27115667	1066967	662198
5584827    3031    38592389	1509502	841399
4749357    3490    32668176	1494074	1287070
4669749    2375    18741251	1438940	980334
4802068    2948    19418859	1514190	1223329
3831617    2391    13741146	974829	1060436
3538109    2442    15979228	991450	1184145
5064696    5391    22051887	1643207	994525
3442442    2368    14699084	1097528	696152
3862283    3429    18726943	1173563	1579263
3139640    2995    33816448	926365	1348213
4815060    2914    27034179	1480881	744933
5759968    2691    19032033	1483423	1733618
2958955    3180    27655519	884832	2487641
3670259    2235    16031410	1199837	646474
3758030    3845    18301614	1351418	854481
5891408    4296    33968486	1768068	1496277
4945252    4817    17663517	1484692	1026801
2662010    2176    22401373	714545	1247918
5866241    3303    22597429	1573552	1447991
4604927    2222    18955954	1513544	2653001
5320059    3433    18907404	1609156	827017
3026394    3115    23457568	903683	594297
4919984    3370    15079454	1492016	2373095
6619896    3941    21120147	2372974	1378486
4066911    4110    16770938	1203662	865963
5624170    2928    22562366	1447141	2299822
5624170    2908    34039793	1599790	1656348
3948802    3154    15160076	1475062	1673420
3869181    2916    15785017	1498064	615655
4711234    3262    19816335	1564055	789822
3846723    2507    25645781	1122347	1605927
5680279    4295    23047848	1740642	878664
4787626    2333    31192977	1385407	1323637
4282757    2880    39762678	1253831	1860969
4690521    3239    31179711	1250031	1567645
3027349    2221    20134341	876838	615976
6379347    2803    17595601	1639859	715310
3503131    2957    19266787	888839	624476
6049425    4081    22407928	1993741	1076813
4739512    2649    29610091	1850668	697086
3197100    2347    18983658	1416872	1798698
3197100    3443    23937413	937793	1456275
4660948    3115    23993453	1463839	744227
3607026    3212    14961090	1280081	608954
4506749    3280    24274436	1425648	2518808
2943513    2115    25704030	894972	1304022
4610515    3006    15782158	1447821	617935
5704492    4155    28615063	1567889	1206413
6875090    4685    21068552	2111367	1068968
4675527    3321    38721278	1413032	879379
5773201    3242    22909182	1481165	1185756
3824395    2409    14702678	941920	822735
4969353    2969    26963573	1503648	983621
4810668    3341    18135474	1574118	681516
3687388    3448    35277159	1411061	627164
4056178    4344    15141694	1268939	1327020
4366792    2825    15143240	1717170	890453
5284861    3442    27409403	1454929	769045
4658258    3105    26602076	1532857	544574
5284962    2271    16476023	1705921	644516
4794856    3423    22294989	1659886	560584
3277596    2526    15833728	1013552	685639
3140045    3174    19130118	948867	708557
5842441    3744    27397440	2220061	1663400
5067912    3189    15791969	1497560	733499
4273679    2281    30432298	1306283	1946797
3710709    3048    24250131	1165454	753248
4711288    2305    21597450	1537684	776801
3383432    2350    14221716	1013042	1215039
4774263    3042    25354970	1520730	2041347
6510833    4138    28964217	2042361	2401341
4523603    2821    27970144	1395539	803304
4750700    2954    16834103	1546708	771560
4916974    3300    23703026	1467176	2658359
4090262    2509    25316322	1189715	1323404
