{
  "general": ["https://platform.linkedin.com/"],

  "script-src": ["https://rapportive.com/",
                 "https://www.linkedin.com/"
                ],

  "frame-src": ["https://api.linkedin.com/"],

  "report-uri": ["http://localhost:7777"]
}
