<?xml version="1.0"?><svg width="533.3333333333333" height="533.3333333333333" xmlns="http://www.w3.org/2000/svg" xmlns:xlink="http://www.w3.org/1999/xlink">
 <title>Puzzle Piece</title>
 <defs>
  <linearGradient id="linearGradient1085">
   <stop stop-color="#006600" offset="0" id="stop1086"/>
   <stop stop-color="#00ff00" offset="1" id="stop1087"/>
  </linearGradient>
  <radialGradient xlink:href="#linearGradient1085" r="2.60953" id="radialGradient1088" fy="0.217553" fx="2.685409" cy="0.217553" cx="2.685409"/>
  <radialGradient xlink:href="#linearGradient1085" r="2.609529" id="radialGradient1089" fy="0.222787" fx="-0.967899" cy="0.222787" cx="-0.967899"/>
  <radialGradient xlink:href="#linearGradient1085" r="2.60953" id="radialGradient1090" gradientTransform="scale(0.751916,1.329935)" fy="-1.633124" fx="0.545005" cy="-1.633124" cx="0.545005"/>
  <radialGradient xlink:href="#linearGradient1085" r="2.60953" id="radialGradient1091" gradientTransform="scale(0.751916,1.329935)" fy="1.113922" fx="0.547018" cy="1.113922" cx="0.547018"/>
  <radialGradient xlink:href="#linearGradient1085" r="2.609529" id="radialGradient1092" fy="0.228146" fx="1.746422" cy="0.228146" cx="1.746422"/>
  <radialGradient xlink:href="#linearGradient1085" r="2.60953" id="radialGradient1093" fy="0.219256" fx="-1.906886" cy="0.219256" cx="-1.906886"/>
  <radialGradient xlink:href="#linearGradient1085" r="2.60953" id="radialGradient1094" gradientTransform="scale(0.751916,1.329935)" fy="-0.923555" fx="0.545005" cy="-0.923555" cx="0.545005"/>
  <radialGradient xlink:href="#linearGradient1085" r="2.609529" id="radialGradient1095" gradientTransform="scale(0.751916,1.329935)" fy="1.820162" fx="0.549669" cy="1.820162" cx="0.549669"/>
  <radialGradient xlink:href="#linearGradient1085" r="0.812568" id="radialGradient1096" gradientTransform="scale(0.867801,1.152339)" fy="0.34639" fx="0.540672" cy="0.34639" cx="0.540672"/>
 </defs>
 <g>
  <title>Layer 1</title>
  <g id="g842">
   <path fill="none" fill-opacity="0.5" fill-rule="evenodd" stroke-width="2.8679966pt" id="path1512" d="m259.664154,56.890629c-15.199432,0.559532 -32.248627,5.653301 -41.34375,16.562504c-13.229248,28.187729 18.907715,15.172905 22.6875,34.687485c3.7798,19.514595 -18.90625,20.593758 -18.90625,20.593758l0,0l-97.749992,0c0,0 0.125,96.9375 0.125,96.9375c0,0 1.07917,22.68602 20.593742,18.90625c19.514603,-3.7798 6.499771,-35.916763 34.6875,-22.6875c10.90921,9.095108 16.00296,26.144302 16.5625,41.34375c0.206573,5.610931 -0.283295,10.887939 -1.25,15.5c-0.024811,0.204681 -0.067291,0.420166 -0.09375,0.625c-1.693909,13.11441 -6.761795,26.417786 -15.96875,34.09375c-28.187729,13.229279 -15.172897,-18.907715 -34.6875,-22.6875c-14.221695,-2.754608 -18.611626,8.512573 -19.968742,14.84375l0,102.875l101.593742,0c6.201233,1.218262 18.241089,5.489075 15.40625,20.125c-3.779785,19.514587 -35.885513,6.499756 -22.65625,34.6875c7.675949,9.20697 20.97934,14.274841 34.09375,15.96875c0.204819,0.026459 0.420319,0.068939 0.625,0.09375c4.612061,0.966705 9.889069,1.456543 15.5,1.25c15.199432,-0.55954 32.248627,-5.65329 41.34375,-16.5625c13.229279,-28.187714 -18.907715,-15.172913 -22.6875,-34.6875c-3.779785,-19.514587 18.90625,-20.59375 18.90625,-20.59375l97.1875,-0.28125l0,-102.09375c1.386414,-6.352112 5.802734,-17.456512 19.9375,-14.71875c19.514587,3.779785 6.499756,35.916779 34.6875,22.6875c9.20694,-7.675934 14.274841,-21.01059 15.96875,-34.125c0.026459,-0.204834 0.068939,-0.389069 0.09375,-0.59375c0.966705,-4.612061 1.456573,-9.889069 1.25,-15.5c-0.55954,-15.199448 -5.65329,-32.248642 -16.5625,-41.34375c-28.187744,-13.229263 -15.172913,18.9077 -34.6875,22.6875c-19.514587,3.7798 -20.59375,-18.90625 -20.59375,-18.90625l-0.09375,-97.84375l-102.15625,0c-6.405579,-1.481941 -16.964233,-5.991882 -14.28125,-19.843758c3.779785,-19.51458 35.885529,-6.499756 22.65625,-34.6875c-7.675934,-9.20694 -20.97934,-14.274826 -34.09375,-15.968739c-0.204834,-0.026459 -0.420319,-0.068939 -0.625,-0.09375c-4.61203,-0.966698 -9.889038,-1.456558 -15.5,-1.25z"/>
   <path fill="none" fill-rule="evenodd" stroke="#000000" stroke-width="12.5" stroke-linejoin="round" id="path1139" d="m243.9375,40.625c-15.199432,0.55954 -32.248627,5.653309 -41.34375,16.5625c-13.229263,28.187737 18.907715,15.172913 22.6875,34.6875c3.779785,19.514587 -18.90625,20.59375 -18.90625,20.59375l0,0l-97.75,0c0,0 0.125,96.937515 0.125,96.9375c0,0 1.07917,22.686035 20.59375,18.90625c19.514587,-3.779785 6.499771,-35.916763 34.6875,-22.6875c10.909195,9.095123 16.00296,26.144318 16.5625,41.34375c0.206558,5.610947 -0.283295,10.887939 -1.25,15.5c-0.024811,0.204681 -0.067291,0.420166 -0.09375,0.625c-1.693909,13.11441 -6.761795,26.417786 -15.96875,34.09375c-28.187744,13.229279 -15.172913,-18.907715 -34.6875,-22.6875c-14.221703,-2.754608 -18.611633,8.512573 -19.96875,14.84375l0,102.875l101.59375,0c6.201218,1.218262 18.241089,5.489075 15.40625,20.125c-3.779785,19.514587 -35.885513,6.499756 -22.65625,34.6875c7.675934,9.20697 20.97934,14.274841 34.09375,15.96875c0.204819,0.026459 0.420303,0.068939 0.625,0.09375c4.612045,0.966705 9.889053,1.456573 15.5,1.25c15.199432,-0.55954 32.248627,-5.65329 41.34375,-16.5625c13.229248,-28.187714 -18.907715,-15.172913 -22.6875,-34.6875c-3.779785,-19.514557 18.90625,-20.59375 18.90625,-20.59375l97.1875,-0.28125l0,-102.09375c1.386414,-6.352112 5.802734,-17.456512 19.9375,-14.71875c19.514587,3.779785 6.499756,35.916779 34.6875,22.6875c9.20694,-7.675934 14.274841,-21.01059 15.96875,-34.125c0.026459,-0.204834 0.068939,-0.389069 0.09375,-0.59375c0.966675,-4.612061 1.456573,-9.889053 1.25,-15.5c-0.55954,-15.199432 -5.65329,-32.248627 -16.5625,-41.34375c-28.187744,-13.229263 -15.172913,18.907715 -34.6875,22.6875c-19.514587,3.7798 -20.59375,-18.90625 -20.59375,-18.90625l-0.09375,-97.84375l-102.15625,0c-6.405579,-1.481941 -16.964233,-5.991882 -14.28125,-19.84375c3.779785,-19.514587 35.885529,-6.499763 22.65625,-34.6875c-7.675964,-9.20694 -20.97934,-14.27483 -34.09375,-15.96875c-0.204834,-0.026451 -0.420319,-0.068939 -0.625,-0.09375c-4.612045,-0.966702 -9.889053,-1.456558 -15.5,-1.25z"/>
  </g>
 </g>
</svg>